module gitlab.com/browserker

go 1.14

require (
	github.com/DataDog/zstd v1.4.5 // indirect
	github.com/cpuguy83/go-md2man/v2 v2.0.0 // indirect
	github.com/davecgh/go-spew v1.1.1
	github.com/dgraph-io/badger/v2 v2.0.3
	github.com/dgraph-io/ristretto v0.0.2 // indirect
	github.com/dgryski/go-farm v0.0.0-20200201041132-a6ae2369ad13 // indirect
	github.com/dlclark/regexp2 v1.2.0 // indirect
	github.com/dop251/goja v0.0.0-20200629185240-bfd59704b500
	github.com/dop251/goja_nodejs v0.0.0-20200703190029-532bc92299f1
	github.com/emicklei/dot v0.11.0
	github.com/gin-gonic/gin v1.6.3
	github.com/go-sourcemap/sourcemap v2.1.3+incompatible // indirect
	github.com/gobwas/pool v0.2.1 // indirect
	github.com/golang/protobuf v1.4.2 // indirect
	github.com/google/gxui v0.0.0-20151028112939-f85e0a97b3a4 // indirect
	github.com/json-iterator/go v1.1.10 // indirect
	github.com/kr/pretty v0.2.0 // indirect
	github.com/pelletier/go-toml v1.8.0
	github.com/pkg/errors v0.9.1
	github.com/rs/zerolog v1.19.0
	github.com/smartystreets/goconvey v1.6.4 // indirect
	github.com/stretchr/testify v1.5.1 // indirect
	github.com/urfave/cli/v2 v2.2.0
	github.com/vmihailenco/msgpack/v4 v4.3.12
	github.com/wirepair/gcd v1.0.15-0.20200709134852-506059021634
	github.com/zach-klippenstein/goregen v0.0.0-20160303162051-795b5e3961ea
	golang.org/x/net v0.0.0-20200625001655-4c5254603344
	golang.org/x/sys v0.0.0-20200625212154-ddb9806d33ae // indirect
	golang.org/x/text v0.3.3 // indirect
	google.golang.org/appengine v1.6.6 // indirect
	google.golang.org/protobuf v1.25.0 // indirect
)
